…
```{r}
#| eval: FALSE
#| include: FALSE
library(tidyverse)
library(pkgsearch)

sr <- advanced_search("_exists_" = "SystemRequirements", size = 1600)
attr(sr, "metadata")$total
#> [1] 1577

tibble(raw = sr$package_data) |> 
  hoist(raw, "SystemRequirements") |> 
  count(SystemRequirements, sort = TRUE) |> 
  print(n = 20)
#> # A tibble: 688 × 2
#>    SystemRequirements                                              n
#>    <chr>                                                       <int>
#>  1 "C++11"                                                       396
#>  2 "GNU make"                                                    194
#>  3 "C++14"                                                        23
#>  4 "Java (>= 8)"                                                  16
#>  5 "C++11, GNU make"                                              15
#>  6 "C++17"                                                        15
#>  7 "JAGS (http://mcmc-jags.sourceforge.net)"                      14
#>  8 "Java (>= 5.0)"                                                13
#>  9 "GNU GSL"                                                      11
#> 10 "GNU make, C++11"                                              10
#> 11 "pandoc"                                                        9
#> 12 "C++ 17, gmp, mpfr"                                             8
#> 13 "pandoc (>= 1.12.3), pandoc-citeproc"                           8
#> 14 "pandoc (>= 1.14) - http://pandoc.org"                          8
#> 15 "TensorFlow (https://www.tensorflow.org/)"                      6
#> 16 "pandoc (>= 1.12.3) - http://pandoc.org"                        6
#> 17 "BEAST2 (https://www.beast2.org/)"                              5
#> 18 "C++11, GDAL (>= 2.0.1), GEOS (>= 3.4.0), PROJ (>=\n4.8.0)"     5
#> 19 "fftw3 (>= 3.1.2)"                                              5
#> 20 "pandoc with https support"                                     5
#> # … with 668 more rows
```
…
